%YAML 1.1
%TAG !u! tag:unity3d.com,2011:
--- !u!114 &11400000
MonoBehaviour:
  m_ObjectHideFlags: 0
  m_CorrespondingSourceObject: {fileID: 0}
  m_PrefabInstance: {fileID: 0}
  m_PrefabAsset: {fileID: 0}
  m_GameObject: {fileID: 0}
  m_Enabled: 1
  m_EditorHideFlags: 0
  m_Script: {fileID: 11500000, guid: 2522949a10fa40d7b98701f86d13f74d, type: 3}
  m_Name: ConstructionPurchaseConfigs
  m_EditorClassIdentifier: 
  sheetName: "\u0421onstruction"
  isOn: 1
  configs:
  - constructionId: 0
    price:
      id: 0
      value: 5
  - constructionId: 1
    price:
      id: 0
      value: 40
  - constructionId: 2
    price:
      id: 0
      value: 10
