%YAML 1.1
%TAG !u! tag:unity3d.com,2011:
--- !u!114 &11400000
MonoBehaviour:
  m_ObjectHideFlags: 0
  m_CorrespondingSourceObject: {fileID: 0}
  m_PrefabInstance: {fileID: 0}
  m_PrefabAsset: {fileID: 0}
  m_GameObject: {fileID: 0}
  m_Enabled: 1
  m_EditorHideFlags: 0
  m_Script: {fileID: 11500000, guid: d47ba844ee904af2b6099203d10f1f2d, type: 3}
  m_Name: AssetConfigsManager
  m_EditorClassIdentifier: 
  convertersList:
  - {fileID: 11400000, guid: e1ce82baf82c7824f9e0efc8251b83fe, type: 2}
  - {fileID: 11400000, guid: 78c2296e342c75e43bc7965d7ed851ac, type: 2}
  - {fileID: 11400000, guid: 6b4e7f8f1dc92964ebb2b0ceb4d8f003, type: 2}
  - {fileID: 11400000, guid: 290c442d7f07fa946b67892c2cc642ac, type: 2}
  - {fileID: 11400000, guid: d2622507911d0b747953d819208eec99, type: 2}
  - {fileID: 11400000, guid: 11736979d60e0ca48869fadc9d0df456, type: 2}
  assetsList:
  - {fileID: 11400000, guid: 3863cdddf1ae6e14b9dbcf9b47cc298a, type: 2}
  - {fileID: 11400000, guid: 5f4866a50f43a8941b3a915ff39f5074, type: 2}
  - {fileID: 11400000, guid: f4ed883804460ae40af626ce8d31decb, type: 2}
  - {fileID: 11400000, guid: 7350ebcaa0855cb48b8c13884f465060, type: 2}
  - {fileID: 11400000, guid: c2f4eac5f312c874380b03e05d1c1c1e, type: 2}
  googleSheets:
  - nameSheet: "\u0421onstruction"
    googleUrl: https://docs.google.com/spreadsheets/d/1i5XlpKl1qLz_gZ11ybxayftFEy7fJpBzjw1YWXhdvbo/edit#gid=0
    tabs:
    - tabName: constructionId
      Elements:
      - 0
      - 1
      - 2
    - tabName: constructionName
      Elements:
      - Carrot
      - Tree
      - Wheat
    - tabName: constructionView
      Elements:
      - Carrot
      - Tree
      - Wheat
    - tabName: price
      Elements:
      - 0_5
      - 0_40
      - 0_10
    - tabName: rewardEnd
      Elements:
      - 3_50
      - 3_500
      - 3_100
    - tabName: timeToEnd
      Elements:
      - 5
      - 15
      - 10
    - tabName: isCanCollect
      Elements:
      - TRUE
      - FALSE
      - TRUE
    - tabName: rewardCollect
      Elements:
      - 2_1
      - 
      - 1_1
    - tabName: rewardView
      Elements:
      - Carrot
      - 
      - Wheat
    - tabName: rewardText
      Elements:
      - "\u041F\u043E\u0434\u043E\u0431\u0440\u0430\u0442\u044C"
      - 
      - "\u0421\u043A\u043E\u0441\u0438\u0442\u044C"
  - nameSheet: Currency
    googleUrl: https://docs.google.com/spreadsheets/d/1i5XlpKl1qLz_gZ11ybxayftFEy7fJpBzjw1YWXhdvbo/edit#gid=1519777018
    tabs:
    - tabName: currencyId
      Elements:
      - 0
      - 1
      - 2
      - 3
    - tabName: currencyIcon
      Elements:
      - Gem_Icon
      - Wheat_icon
      - Carrot_icon
      - Exp_icon
    - tabName: defaultValue
      Elements:
      - 10
      - 0
      - 0
      - 0
    - tabName: isCanTrade
      Elements:
      - FALSE
      - TRUE
      - TRUE
      - FALSE
    - tabName: price
      Elements:
      - 
      - 0_15
      - 0_5
      - 
